doorlock/isim.log
ISim log file
Running: /home/ise/Door Lock/doorlock/t_password_getter_isim_beh.exe -intstyle ise -gui -tclbatch isim.cmd -wdb /home/ise/Door Lock/doorlock/t_password_getter_isim_beh.wdb 
ISim P.20131013 (signature 0xfbc00daa)
----------------------------------------------------------------------
WARNING:Security:42 - Your software subscription period has lapsed. Your current version of Xilinx tools will continue to function, but you no longer qualify for Xilinx software updates or new releases.


----------------------------------------------------------------------
This is a Full version of ISim.
Time resolution is 1 ps
# onerror resume
# wave add /
# run 1000 ns
Simulator is doing circuit initialization process.
Finished circuit initialization process.
[                   0]	digit = x	confirm = x	reset = 1	password = xxx
[                1000]	digit = x	confirm = x	reset = 1	password = 000
[                2000]	digit = x	confirm = x	reset = 0	password = 000
[                4000]	digit = 4	confirm = 1	reset = 0	password = 000
[                5000]	digit = 4	confirm = 1	reset = 0	password = 004
[                6000]	digit = 4	confirm = 0	reset = 0	password = 004
[                8000]	digit = 1	confirm = 1	reset = 0	password = 004
[                9000]	digit = 1	confirm = 1	reset = 0	password = 041
[               10000]	digit = 1	confirm = 0	reset = 0	password = 041
[               12000]	digit = 9	confirm = 1	reset = 0	password = 041
[               13000]	digit = 9	confirm = 1	reset = 0	password = 419
[               14000]	digit = 9	confirm = 0	reset = 0	password = 419
[               16000]	digit = 3	confirm = 1	reset = 0	password = 419
[               17000]	digit = 3	confirm = 1	reset = 0	password = 193
[               18000]	digit = 3	confirm = 0	reset = 0	password = 193
[               20000]	digit = d	confirm = 1	reset = 0	password = 193
[               21000]	digit = d	confirm = 1	reset = 0	password = 93d
[               22000]	digit = d	confirm = 0	reset = 0	password = 93d
[               24000]	digit = d	confirm = 1	reset = 0	password = 93d
[               25000]	digit = d	confirm = 1	reset = 0	password = 3dd
[               26000]	digit = d	confirm = 0	reset = 0	password = 3dd
[               28000]	digit = d	confirm = 0	reset = 1	password = 3dd
[               29000]	digit = d	confirm = 0	reset = 1	password = 000
Stopped at time : 33 ns :  in File "/home/ise/Door Lock/doorlock/t_password_getter.v" Line 37 
# exit 0
